…
## New names:
## * `` -> ...2
## * `` -> ...3
## * `` -> ...4
## * `` -> ...5
## * `` -> ...6
## * ...

dataframe

## # A tibble: 21 x 16
##    `Australian Bure… ...2  ...3  ...4  ...5  ...6  ...7  ...8  ...9  ...10 ...11
##    <chr>             <chr> <chr> <chr> <chr> <chr> <chr> <lgl> <chr> <chr> <chr>
##  1 1800.0 Australia… <NA>  <NA>  <NA>  <NA>  <NA>  <NA>  NA    <NA>  <NA>  <NA> 
##  2 Released on 15 N… <NA>  <NA>  <NA>  <NA>  <NA>  <NA>  NA    <NA>  <NA>  <NA> 
##  3 Table 1 Response… <NA>  <NA>  <NA>  <NA>  <NA>  <NA>  NA    <NA>  <NA>  <NA> 
##  4 <NA>              Resp… <NA>  <NA>  <NA>  <NA>  <NA>  NA    Elig… <NA>  <NA> 
##  5 <NA>              Yes   <NA>  No    <NA>  Total <NA>  NA    Resp… <NA>  Resp…
##  6 <NA>              no.   %     no.   %     no.   %     NA    no.   %     no.  
##  7 New South Wales   2374… 57.7… 1736… 42.2… 4111… 100   NA    4111… 79.2… 11036
##  8 Victoria          2145… 64.9… 1161… 35.1… 3306… 100   NA    3306… 81.4… 11028
##  9 Queensland        1487… 60.7… 9610… 39.2… 2448… 100   NA    2448… 77.7… 7088 
## 10 South Australia   5925… 62.5  3562… 37.5  9487… 100   NA    9487… 79.5  2778 
## # … with 11 more rows, and 5 more variables: ...12 <chr>, ...13 <chr>,
## #   ...14 <chr>, ...15 <chr>, ...16 <chr>
…
